au\com\m2\webservice\wsm\interceptor\ProcessProductIdInterceptor.class
au\com\m2\webservice\wsm\interceptor\StartCallBackTimerInterceptor.class
au\com\m2\webservice\wsm\service\WholesaleServiceManagementPortTypeBean.class
au\com\m2\webservice\wsm\service\WholesaleServiceManagement.class
au\com\m2\webservice\wsm\util\Constants.class
au\com\m2\webservice\wsm\util\Constants$Product.class
